<svg xmlns="http://www.w3.org/2000/svg" xmlns:xlink="http://www.w3.org/1999/xlink" id="Layer_1" x="0px" y="0px" viewBox="0 0 100 100" style="enable-background:new 0 0 100 100;" xml:space="preserve">
<style type="text/css">
	.st0{fill:#1D1D1B;}
	.st1{fill:#FFFFFF;}
	.st2{fill:none;stroke:#FFFFFF;stroke-width:2;stroke-miterlimit:10;}
</style>
<g>
	<g>
		<path d="M70.03,69.55v3.88h6.42c-0.26,1.67-1.94,4.88-6.42,4.88c-3.87,0-7.02-3.2-7.02-7.15c0-3.95,3.15-7.15,7.02-7.15    c2.2,0,3.67,0.94,4.51,1.75l3.07-2.96c-1.97-1.84-4.53-2.96-7.59-2.96c-6.26,0-11.32,5.06-11.32,11.32    c0,6.26,5.06,11.32,11.32,11.32c6.53,0,10.87-4.59,10.87-11.06c0-0.74-0.08-1.31-0.18-1.88H70.03z"></path>
		<path d="M92.44,13.59C91.72,10.35,88.8,8,85.48,8H14.38c-3.31,0-6.24,2.35-6.95,5.59L1.86,38.78V39c0,4.86,2.57,9.12,6.43,11.51    v34.28c0,3.91,3.18,7.09,7.09,7.09h69.34c3.91,0,7.09-3.18,7.09-7.09V50.36C95.53,47.94,98,43.76,98,39v-0.22L92.44,13.59z     M70.94,39.12c-0.06,5.18-4.3,9.38-9.49,9.38c-5.24,0-9.49-4.26-9.49-9.49V12.04h15.64L70.94,39.12z M32.27,12.04h15.64V39    c0,5.24-4.26,9.49-9.49,9.49c-5.2,0-9.43-4.2-9.49-9.38L32.27,12.04z M11.37,14.46c0.31-1.4,1.58-2.42,3.01-2.42H28.2l-3.31,26.84    V39c0,5.24-4.26,9.49-9.49,9.49c-5.17,0-9.38-4.15-9.49-9.28L11.37,14.46z M87.84,84.79c0,1.72-1.4,3.12-3.12,3.12H15.38    c-1.72,0-3.12-1.4-3.12-3.12V52.16c1,0.24,2.05,0.37,3.13,0.37c4.86,0,9.13-2.58,11.51-6.43c2.39,3.86,6.65,6.43,11.51,6.43    c4.86,0,9.13-2.58,11.51-6.43c2.39,3.86,6.65,6.43,11.51,6.43c4.86,0,9.13-2.58,11.51-6.43c2.39,3.86,6.65,6.43,11.51,6.43    c1.16,0,2.29-0.15,3.37-0.43V84.79z M84.47,48.49c-5.24,0-9.49-4.26-9.49-9.49v-0.12l-3.31-26.84h13.82c1.44,0,2.7,1.02,3.01,2.42    l5.47,24.75C93.85,44.35,89.63,48.49,84.47,48.49z"></path>
	</g>
	<g>
		<path class="st0" d="M70.03,69.55v3.88h6.42c-0.26,1.67-1.94,4.88-6.42,4.88c-3.87,0-7.02-3.2-7.02-7.15    c0-3.95,3.15-7.15,7.02-7.15c2.2,0,3.67,0.94,4.51,1.75l3.07-2.96c-1.97-1.84-4.53-2.96-7.59-2.96c-6.26,0-11.32,5.06-11.32,11.32    c0,6.26,5.06,11.32,11.32,11.32c6.53,0,10.87-4.59,10.87-11.06c0-0.74-0.08-1.31-0.18-1.88H70.03z"></path>
		<path class="st0" d="M92.44,13.59C91.72,10.35,88.8,8,85.48,8H14.38c-3.31,0-6.24,2.35-6.95,5.59L1.86,38.78V39    c0,4.86,2.57,9.12,6.43,11.51v34.28c0,3.91,3.18,7.09,7.09,7.09h69.34c3.91,0,7.09-3.18,7.09-7.09V50.36    C95.53,47.94,98,43.76,98,39v-0.22L92.44,13.59z M70.94,39.12c-0.06,5.18-4.3,9.38-9.49,9.38c-5.24,0-9.49-4.26-9.49-9.49V12.04    h15.64L70.94,39.12z M32.27,12.04h15.64V39c0,5.24-4.26,9.49-9.49,9.49c-5.2,0-9.43-4.2-9.49-9.38L32.27,12.04z M11.37,14.46    c0.31-1.4,1.58-2.42,3.01-2.42H28.2l-3.31,26.84V39c0,5.24-4.26,9.49-9.49,9.49c-5.17,0-9.38-4.15-9.49-9.28L11.37,14.46z     M87.84,84.79c0,1.72-1.4,3.12-3.12,3.12H15.38c-1.72,0-3.12-1.4-3.12-3.12V52.16c1,0.24,2.05,0.37,3.13,0.37    c4.86,0,9.13-2.58,11.51-6.43c2.39,3.86,6.65,6.43,11.51,6.43c4.86,0,9.13-2.58,11.51-6.43c2.39,3.86,6.65,6.43,11.51,6.43    c4.86,0,9.13-2.58,11.51-6.43c2.39,3.86,6.65,6.43,11.51,6.43c1.16,0,2.29-0.15,3.37-0.43V84.79z M84.47,48.49    c-5.24,0-9.49-4.26-9.49-9.49v-0.12l-3.31-26.84h13.82c1.44,0,2.7,1.02,3.01,2.42l5.47,24.75C93.85,44.35,89.63,48.49,84.47,48.49    z"></path>
	</g>
	<g>
		<path class="st1" d="M70.03,69.55v3.88h6.42c-0.26,1.67-1.94,4.88-6.42,4.88c-3.87,0-7.02-3.2-7.02-7.15    c0-3.95,3.15-7.15,7.02-7.15c2.2,0,3.67,0.94,4.51,1.75l3.07-2.96c-1.97-1.84-4.53-2.96-7.59-2.96c-6.26,0-11.32,5.06-11.32,11.32    c0,6.26,5.06,11.32,11.32,11.32c6.53,0,10.87-4.59,10.87-11.06c0-0.74-0.08-1.31-0.18-1.88H70.03z"></path>
		<path class="st1" d="M92.44,13.59C91.72,10.35,88.8,8,85.48,8H14.38c-3.31,0-6.24,2.35-6.95,5.59L1.86,38.78V39    c0,4.86,2.57,9.12,6.43,11.51v34.28c0,3.91,3.18,7.09,7.09,7.09h69.34c3.91,0,7.09-3.18,7.09-7.09V50.36    C95.53,47.94,98,43.76,98,39v-0.22L92.44,13.59z M70.94,39.12c-0.06,5.18-4.3,9.38-9.49,9.38c-5.24,0-9.49-4.26-9.49-9.49V12.04    h15.64L70.94,39.12z M32.27,12.04h15.64V39c0,5.24-4.26,9.49-9.49,9.49c-5.2,0-9.43-4.2-9.49-9.38L32.27,12.04z M11.37,14.46    c0.31-1.4,1.58-2.42,3.01-2.42H28.2l-3.31,26.84V39c0,5.24-4.26,9.49-9.49,9.49c-5.17,0-9.38-4.15-9.49-9.28L11.37,14.46z     M87.84,84.79c0,1.72-1.4,3.12-3.12,3.12H15.38c-1.72,0-3.12-1.4-3.12-3.12V52.16c1,0.24,2.05,0.37,3.13,0.37    c4.86,0,9.13-2.58,11.51-6.43c2.39,3.86,6.65,6.43,11.51,6.43c4.86,0,9.13-2.58,11.51-6.43c2.39,3.86,6.65,6.43,11.51,6.43    c4.86,0,9.13-2.58,11.51-6.43c2.39,3.86,6.65,6.43,11.51,6.43c1.16,0,2.29-0.15,3.37-0.43V84.79z M84.47,48.49    c-5.24,0-9.49-4.26-9.49-9.49v-0.12l-3.31-26.84h13.82c1.44,0,2.7,1.02,3.01,2.42l5.47,24.75C93.85,44.35,89.63,48.49,84.47,48.49    z"></path>
	</g>
	<g>
		<path class="st2" d="M70.03,69.55v3.88h6.42c-0.26,1.67-1.94,4.88-6.42,4.88c-3.87,0-7.02-3.2-7.02-7.15    c0-3.95,3.15-7.15,7.02-7.15c2.2,0,3.67,0.94,4.51,1.75l3.07-2.96c-1.97-1.84-4.53-2.96-7.59-2.96c-6.26,0-11.32,5.06-11.32,11.32    c0,6.26,5.06,11.32,11.32,11.32c6.53,0,10.87-4.59,10.87-11.06c0-0.74-0.08-1.31-0.18-1.88H70.03z"></path>
		<path class="st2" d="M92.44,13.59C91.72,10.35,88.8,8,85.48,8H14.38c-3.31,0-6.24,2.35-6.95,5.59L1.86,38.78V39    c0,4.86,2.57,9.12,6.43,11.51v34.28c0,3.91,3.18,7.09,7.09,7.09h69.34c3.91,0,7.09-3.18,7.09-7.09V50.36    C95.53,47.94,98,43.76,98,39v-0.22L92.44,13.59z M70.94,39.12c-0.06,5.18-4.3,9.38-9.49,9.38c-5.24,0-9.49-4.26-9.49-9.49V12.04    h15.64L70.94,39.12z M32.27,12.04h15.64V39c0,5.24-4.26,9.49-9.49,9.49c-5.2,0-9.43-4.2-9.49-9.38L32.27,12.04z M11.37,14.46    c0.31-1.4,1.58-2.42,3.01-2.42H28.2l-3.31,26.84V39c0,5.24-4.26,9.49-9.49,9.49c-5.17,0-9.38-4.15-9.49-9.28L11.37,14.46z     M87.84,84.79c0,1.72-1.4,3.12-3.12,3.12H15.38c-1.72,0-3.12-1.4-3.12-3.12V52.16c1,0.24,2.05,0.37,3.13,0.37    c4.86,0,9.13-2.58,11.51-6.43c2.39,3.86,6.65,6.43,11.51,6.43c4.86,0,9.13-2.58,11.51-6.43c2.39,3.86,6.65,6.43,11.51,6.43    c4.86,0,9.13-2.58,11.51-6.43c2.39,3.86,6.65,6.43,11.51,6.43c1.16,0,2.29-0.15,3.37-0.43V84.79z M84.47,48.49    c-5.24,0-9.49-4.26-9.49-9.49v-0.12l-3.31-26.84h13.82c1.44,0,2.7,1.02,3.01,2.42l5.47,24.75C93.85,44.35,89.63,48.49,84.47,48.49    z"></path>
	</g>
</g>
</svg>